,100100040,134135130,234230040,130136010,200135020,130100000,100100010,200100020,130132070,233135020,131135010,133135020,300300040,131137020,200200030,137131060,200200040,136134070,134135120,135133060,100100050,100100020,100100000,132133000,132134010,300300030,234236030,100100070,234232050,135137040,136130050,133135120,136132060,132135010,131133000,100100060,134136030,132100010,200200050,130134000
0.0,0.0,0,0,0.0,0.0,0,0,0.0,0.0,0.0,0,0,0,0.0,0.0,0.0,0,0.0,0,0.0,0.0,0,0.0,0,0,0.0,0.0,0.0,0.0,0.0,0.0,0,0,0,0.0,0.0,0,0,0,0
0.0,0.0,0,0.0,0,0.0,0.0,0.0,0,0.0,0.0,0.0,0.0,0.0,0,0,0.0,0.0,0,0.0,0,0,0.0,0.0,0.0,0.0,0.0,0.0,0.0,0,0.0,0.0,0.0,0.0,0.0,0.0,0.0,0.0,0.0,0.0,0.0
